Data Preparation –
…
Monthly_dengue_longer <- Monthly_dengue %>%
  pivot_longer(
    cols = 2:12,
    names_to = "Year",
    values_to = "denguecases"
  )%>%filter(!str_detect(`Month/Year`, "Total")) %>%
  rename(Month = `Month/Year`)

Monthly_dengue_longer$Year <- as.numeric(Monthly_dengue_longer$Year)
Monthly_dengue_longer$Month<- as.numeric(Monthly_dengue_longer$Month)
print(Monthly_dengue_longer)

# A tibble: 132 × 3
   Month  Year denguecases
   <dbl> <dbl>       <dbl>
 1     1  2014        1887
 2     1  2015         982
 3     1  2016        2428
 4     1  2017         298
 5     1  2018         298
 6     1  2019        1071
 7     1  2020        1729
 8     1  2021         647
 9     1  2022         603
10     1  2023        1016
# ℹ 122 more rows
…
